{
    "articles": [
        {
            "title": "Wonder Copenhagen 2021",
            "date": "12-07-2021",
            "image": "./assets/images/posts/post_thumbnail-1.png",
            "text": "<p>Lorem, ipsum dolor sit amet consectetur adipisicing elit. Eum necessitatibus, quis doloribus soluta quae officia. Ab incidunt cum voluptate pariatur inventore doloribus ut consequuntur similique minus, asperiores temporibus vel? At sunt doloremque nesciunt eveniet! Ipsam voluptate suscipit vel veritatis ut accusantium dignissimos doloremque ex porro quidem nemo, magnam quia voluptates odio obcaecati officia laborum. </p><p>Lorem, ipsum dolor sit amet consectetur adipisicing elit. Eum necessitatibus, quis doloribus soluta quae officia. Ab incidunt cum voluptate pariatur inventore doloribus ut consequuntur similique minus, asperiores temporibus vel? At sunt doloremque nesciunt eveniet! Ipsam voluptate suscipit vel veritatis ut accusantium dignissimos doloremque ex porro quidem nemo, magnam quia voluptates odio obcaecati officia laborum. </p><p>Lorem, ipsum dolor sit amet consectetur adipisicing elit. Eum necessitatibus, quis doloribus soluta quae officia. Ab incidunt cum voluptate pariatur inventore doloribus ut consequuntur similique minus, asperiores temporibus vel? At sunt doloremque nesciunt eveniet! Ipsam voluptate suscipit vel veritatis ut accusantium dignissimos doloremque ex porro quidem nemo, magnam quia voluptates odio obcaecati officia laborum. </p><p>Lorem, ipsum dolor sit amet consectetur adipisicing elit. Eum necessitatibus, quis doloribus soluta quae officia. Ab incidunt cum voluptate pariatur inventore doloribus ut consequuntur similique minus, asperiores temporibus vel? At sunt doloremque nesciunt eveniet! Ipsam voluptate suscipit vel veritatis ut accusantium dignissimos doloremque ex porro quidem nemo, magnam quia voluptates odio obcaecati officia laborum. </p><p>Lorem, ipsum dolor sit amet consectetur adipisicing elit. Eum necessitatibus, quis doloribus soluta quae officia. Ab incidunt cum voluptate pariatur inventore doloribus ut consequuntur similique minus, asperiores temporibus vel? At sunt doloremque nesciunt eveniet! Ipsam voluptate suscipit vel veritatis ut accusantium dignissimos doloremque ex porro quidem nemo, magnam quia voluptates odio obcaecati officia laborum. </p><p>Lorem, ipsum dolor sit amet consectetur adipisicing elit. Eum necessitatibus, quis doloribus soluta quae officia. Ab incidunt cum voluptate pariatur inventore doloribus ut consequuntur similique minus, asperiores temporibus vel? At sunt doloremque nesciunt eveniet! Ipsam voluptate suscipit vel veritatis ut accusantium dignissimos doloremque ex porro quidem nemo, magnam quia voluptates odio obcaecati officia laborum. </p><p>Lorem, ipsum dolor sit amet consectetur adipisicing elit. Eum necessitatibus, quis doloribus soluta quae officia. Ab incidunt cum voluptate pariatur inventore doloribus ut consequuntur similique minus, asperiores temporibus vel? At sunt doloremque nesciunt eveniet! Ipsam voluptate suscipit vel veritatis ut accusantium dignissimos doloremque ex porro quidem nemo, magnam quia voluptates odio obcaecati officia laborum. </p><p>Lorem, ipsum dolor sit amet consectetur adipisicing elit. Eum necessitatibus, quis doloribus soluta quae officia. Ab incidunt cum voluptate pariatur inventore doloribus ut consequuntur similique minus, asperiores temporibus vel? At sunt doloremque nesciunt eveniet! Ipsam voluptate suscipit vel veritatis ut accusantium dignissimos doloremque ex porro quidem nemo, magnam quia voluptates odio obcaecati officia laborum. </p><p>Lorem, ipsum dolor sit amet consectetur adipisicing elit. Eum necessitatibus, quis doloribus soluta quae officia. Ab incidunt cum voluptate pariatur inventore doloribus ut consequuntur similique minus, asperiores temporibus vel? At sunt doloremque nesciunt eveniet! Ipsam voluptate suscipit vel veritatis ut accusantium dignissimos doloremque ex porro quidem nemo, magnam quia voluptates odio obcaecati officia laborum. </p><p>Lorem, ipsum dolor sit amet consectetur adipisicing elit. Eum necessitatibus, quis doloribus soluta quae officia. Ab incidunt cum voluptate pariatur inventore doloribus ut consequuntur similique minus, asperiores temporibus vel? At sunt doloremque nesciunt eveniet! Ipsam voluptate suscipit vel veritatis ut accusantium dignissimos doloremque ex porro quidem nemo, magnam quia voluptates odio obcaecati officia laborum. </p>"
            
        },
        {
            "title": "The most expensive coffee on the market",
            "date": "12-07-2021",
            "image": "./assets/images/posts/post_thumbnail-2.png",
            "text": "<p>Lorem, ipsum dolor sit amet consectetur adipisicing elit. Eum necessitatibus, quis doloribus soluta quae officia. Ab incidunt cum voluptate pariatur inventore doloribus ut consequuntur similique minus, asperiores temporibus vel? At sunt doloremque nesciunt eveniet! Ipsam voluptate suscipit vel veritatis ut accusantium dignissimos doloremque ex porro quidem nemo, magnam quia voluptates odio obcaecati officia laborum. </p><p>Lorem, ipsum dolor sit amet consectetur adipisicing elit. Eum necessitatibus, quis doloribus soluta quae officia. Ab incidunt cum voluptate pariatur inventore doloribus ut consequuntur similique minus, asperiores temporibus vel? At sunt doloremque nesciunt eveniet! Ipsam voluptate suscipit vel veritatis ut accusantium dignissimos doloremque ex porro quidem nemo, magnam quia voluptates odio obcaecati officia laborum. </p><p>Lorem, ipsum dolor sit amet consectetur adipisicing elit. Eum necessitatibus, quis doloribus soluta quae officia. Ab incidunt cum voluptate pariatur inventore doloribus ut consequuntur similique minus, asperiores temporibus vel? At sunt doloremque nesciunt eveniet! Ipsam voluptate suscipit vel veritatis ut accusantium dignissimos doloremque ex porro quidem nemo, magnam quia voluptates odio obcaecati officia laborum. </p><p>Lorem, ipsum dolor sit amet consectetur adipisicing elit. Eum necessitatibus, quis doloribus soluta quae officia. Ab incidunt cum voluptate pariatur inventore doloribus ut consequuntur similique minus, asperiores temporibus vel? At sunt doloremque nesciunt eveniet! Ipsam voluptate suscipit vel veritatis ut accusantium dignissimos doloremque ex porro quidem nemo, magnam quia voluptates odio obcaecati officia laborum. </p><p>Lorem, ipsum dolor sit amet consectetur adipisicing elit. Eum necessitatibus, quis doloribus soluta quae officia. Ab incidunt cum voluptate pariatur inventore doloribus ut consequuntur similique minus, asperiores temporibus vel? At sunt doloremque nesciunt eveniet! Ipsam voluptate suscipit vel veritatis ut accusantium dignissimos doloremque ex porro quidem nemo, magnam quia voluptates odio obcaecati officia laborum. </p><p>Lorem, ipsum dolor sit amet consectetur adipisicing elit. Eum necessitatibus, quis doloribus soluta quae officia. Ab incidunt cum voluptate pariatur inventore doloribus ut consequuntur similique minus, asperiores temporibus vel? At sunt doloremque nesciunt eveniet! Ipsam voluptate suscipit vel veritatis ut accusantium dignissimos doloremque ex porro quidem nemo, magnam quia voluptates odio obcaecati officia laborum. </p><p>Lorem, ipsum dolor sit amet consectetur adipisicing elit. Eum necessitatibus, quis doloribus soluta quae officia. Ab incidunt cum voluptate pariatur inventore doloribus ut consequuntur similique minus, asperiores temporibus vel? At sunt doloremque nesciunt eveniet! Ipsam voluptate suscipit vel veritatis ut accusantium dignissimos doloremque ex porro quidem nemo, magnam quia voluptates odio obcaecati officia laborum. </p><p>Lorem, ipsum dolor sit amet consectetur adipisicing elit. Eum necessitatibus, quis doloribus soluta quae officia. Ab incidunt cum voluptate pariatur inventore doloribus ut consequuntur similique minus, asperiores temporibus vel? At sunt doloremque nesciunt eveniet! Ipsam voluptate suscipit vel veritatis ut accusantium dignissimos doloremque ex porro quidem nemo, magnam quia voluptates odio obcaecati officia laborum. </p><p>Lorem, ipsum dolor sit amet consectetur adipisicing elit. Eum necessitatibus, quis doloribus soluta quae officia. Ab incidunt cum voluptate pariatur inventore doloribus ut consequuntur similique minus, asperiores temporibus vel? At sunt doloremque nesciunt eveniet! Ipsam voluptate suscipit vel veritatis ut accusantium dignissimos doloremque ex porro quidem nemo, magnam quia voluptates odio obcaecati officia laborum. </p><p>Lorem, ipsum dolor sit amet consectetur adipisicing elit. Eum necessitatibus, quis doloribus soluta quae officia. Ab incidunt cum voluptate pariatur inventore doloribus ut consequuntur similique minus, asperiores temporibus vel? At sunt doloremque nesciunt eveniet! Ipsam voluptate suscipit vel veritatis ut accusantium dignissimos doloremque ex porro quidem nemo, magnam quia voluptates odio obcaecati officia laborum. </p>"
        },
        {
            "title": "10 types of coffee beans you need to know",
            "date": "12-07-2021",
            "image": "./assets/images/posts/post_thumbnail-3.png",
            "text": "<p>Lorem, ipsum dolor sit amet consectetur adipisicing elit. Eum necessitatibus, quis doloribus soluta quae officia. Ab incidunt cum voluptate pariatur inventore doloribus ut consequuntur similique minus, asperiores temporibus vel? At sunt doloremque nesciunt eveniet! Ipsam voluptate suscipit vel veritatis ut accusantium dignissimos doloremque ex porro quidem nemo, magnam quia voluptates odio obcaecati officia laborum. </p><p>Lorem, ipsum dolor sit amet consectetur adipisicing elit. Eum necessitatibus, quis doloribus soluta quae officia. Ab incidunt cum voluptate pariatur inventore doloribus ut consequuntur similique minus, asperiores temporibus vel? At sunt doloremque nesciunt eveniet! Ipsam voluptate suscipit vel veritatis ut accusantium dignissimos doloremque ex porro quidem nemo, magnam quia voluptates odio obcaecati officia laborum. </p><p>Lorem, ipsum dolor sit amet consectetur adipisicing elit. Eum necessitatibus, quis doloribus soluta quae officia. Ab incidunt cum voluptate pariatur inventore doloribus ut consequuntur similique minus, asperiores temporibus vel? At sunt doloremque nesciunt eveniet! Ipsam voluptate suscipit vel veritatis ut accusantium dignissimos doloremque ex porro quidem nemo, magnam quia voluptates odio obcaecati officia laborum. </p><p>Lorem, ipsum dolor sit amet consectetur adipisicing elit. Eum necessitatibus, quis doloribus soluta quae officia. Ab incidunt cum voluptate pariatur inventore doloribus ut consequuntur similique minus, asperiores temporibus vel? At sunt doloremque nesciunt eveniet! Ipsam voluptate suscipit vel veritatis ut accusantium dignissimos doloremque ex porro quidem nemo, magnam quia voluptates odio obcaecati officia laborum. </p><p>Lorem, ipsum dolor sit amet consectetur adipisicing elit. Eum necessitatibus, quis doloribus soluta quae officia. Ab incidunt cum voluptate pariatur inventore doloribus ut consequuntur similique minus, asperiores temporibus vel? At sunt doloremque nesciunt eveniet! Ipsam voluptate suscipit vel veritatis ut accusantium dignissimos doloremque ex porro quidem nemo, magnam quia voluptates odio obcaecati officia laborum. </p><p>Lorem, ipsum dolor sit amet consectetur adipisicing elit. Eum necessitatibus, quis doloribus soluta quae officia. Ab incidunt cum voluptate pariatur inventore doloribus ut consequuntur similique minus, asperiores temporibus vel? At sunt doloremque nesciunt eveniet! Ipsam voluptate suscipit vel veritatis ut accusantium dignissimos doloremque ex porro quidem nemo, magnam quia voluptates odio obcaecati officia laborum. </p><p>Lorem, ipsum dolor sit amet consectetur adipisicing elit. Eum necessitatibus, quis doloribus soluta quae officia. Ab incidunt cum voluptate pariatur inventore doloribus ut consequuntur similique minus, asperiores temporibus vel? At sunt doloremque nesciunt eveniet! Ipsam voluptate suscipit vel veritatis ut accusantium dignissimos doloremque ex porro quidem nemo, magnam quia voluptates odio obcaecati officia laborum. </p><p>Lorem, ipsum dolor sit amet consectetur adipisicing elit. Eum necessitatibus, quis doloribus soluta quae officia. Ab incidunt cum voluptate pariatur inventore doloribus ut consequuntur similique minus, asperiores temporibus vel? At sunt doloremque nesciunt eveniet! Ipsam voluptate suscipit vel veritatis ut accusantium dignissimos doloremque ex porro quidem nemo, magnam quia voluptates odio obcaecati officia laborum. </p><p>Lorem, ipsum dolor sit amet consectetur adipisicing elit. Eum necessitatibus, quis doloribus soluta quae officia. Ab incidunt cum voluptate pariatur inventore doloribus ut consequuntur similique minus, asperiores temporibus vel? At sunt doloremque nesciunt eveniet! Ipsam voluptate suscipit vel veritatis ut accusantium dignissimos doloremque ex porro quidem nemo, magnam quia voluptates odio obcaecati officia laborum. </p><p>Lorem, ipsum dolor sit amet consectetur adipisicing elit. Eum necessitatibus, quis doloribus soluta quae officia. Ab incidunt cum voluptate pariatur inventore doloribus ut consequuntur similique minus, asperiores temporibus vel? At sunt doloremque nesciunt eveniet! Ipsam voluptate suscipit vel veritatis ut accusantium dignissimos doloremque ex porro quidem nemo, magnam quia voluptates odio obcaecati officia laborum. </p>"
        },
        {
            "title": "Challenge your barista skills to the max",
            "date": "12-07-2021",
            "image": "./assets/images/posts/post_thumbnail-4.png",
            "text": "<p>Lorem, ipsum dolor sit amet consectetur adipisicing elit. Eum necessitatibus, quis doloribus soluta quae officia. Ab incidunt cum voluptate pariatur inventore doloribus ut consequuntur similique minus, asperiores temporibus vel? At sunt doloremque nesciunt eveniet! Ipsam voluptate suscipit vel veritatis ut accusantium dignissimos doloremque ex porro quidem nemo, magnam quia voluptates odio obcaecati officia laborum. </p><p>Lorem, ipsum dolor sit amet consectetur adipisicing elit. Eum necessitatibus, quis doloribus soluta quae officia. Ab incidunt cum voluptate pariatur inventore doloribus ut consequuntur similique minus, asperiores temporibus vel? At sunt doloremque nesciunt eveniet! Ipsam voluptate suscipit vel veritatis ut accusantium dignissimos doloremque ex porro quidem nemo, magnam quia voluptates odio obcaecati officia laborum. </p><p>Lorem, ipsum dolor sit amet consectetur adipisicing elit. Eum necessitatibus, quis doloribus soluta quae officia. Ab incidunt cum voluptate pariatur inventore doloribus ut consequuntur similique minus, asperiores temporibus vel? At sunt doloremque nesciunt eveniet! Ipsam voluptate suscipit vel veritatis ut accusantium dignissimos doloremque ex porro quidem nemo, magnam quia voluptates odio obcaecati officia laborum. </p><p>Lorem, ipsum dolor sit amet consectetur adipisicing elit. Eum necessitatibus, quis doloribus soluta quae officia. Ab incidunt cum voluptate pariatur inventore doloribus ut consequuntur similique minus, asperiores temporibus vel? At sunt doloremque nesciunt eveniet! Ipsam voluptate suscipit vel veritatis ut accusantium dignissimos doloremque ex porro quidem nemo, magnam quia voluptates odio obcaecati officia laborum. </p><p>Lorem, ipsum dolor sit amet consectetur adipisicing elit. Eum necessitatibus, quis doloribus soluta quae officia. Ab incidunt cum voluptate pariatur inventore doloribus ut consequuntur similique minus, asperiores temporibus vel? At sunt doloremque nesciunt eveniet! Ipsam voluptate suscipit vel veritatis ut accusantium dignissimos doloremque ex porro quidem nemo, magnam quia voluptates odio obcaecati officia laborum. </p><p>Lorem, ipsum dolor sit amet consectetur adipisicing elit. Eum necessitatibus, quis doloribus soluta quae officia. Ab incidunt cum voluptate pariatur inventore doloribus ut consequuntur similique minus, asperiores temporibus vel? At sunt doloremque nesciunt eveniet! Ipsam voluptate suscipit vel veritatis ut accusantium dignissimos doloremque ex porro quidem nemo, magnam quia voluptates odio obcaecati officia laborum. </p><p>Lorem, ipsum dolor sit amet consectetur adipisicing elit. Eum necessitatibus, quis doloribus soluta quae officia. Ab incidunt cum voluptate pariatur inventore doloribus ut consequuntur similique minus, asperiores temporibus vel? At sunt doloremque nesciunt eveniet! Ipsam voluptate suscipit vel veritatis ut accusantium dignissimos doloremque ex porro quidem nemo, magnam quia voluptates odio obcaecati officia laborum. </p><p>Lorem, ipsum dolor sit amet consectetur adipisicing elit. Eum necessitatibus, quis doloribus soluta quae officia. Ab incidunt cum voluptate pariatur inventore doloribus ut consequuntur similique minus, asperiores temporibus vel? At sunt doloremque nesciunt eveniet! Ipsam voluptate suscipit vel veritatis ut accusantium dignissimos doloremque ex porro quidem nemo, magnam quia voluptates odio obcaecati officia laborum. </p><p>Lorem, ipsum dolor sit amet consectetur adipisicing elit. Eum necessitatibus, quis doloribus soluta quae officia. Ab incidunt cum voluptate pariatur inventore doloribus ut consequuntur similique minus, asperiores temporibus vel? At sunt doloremque nesciunt eveniet! Ipsam voluptate suscipit vel veritatis ut accusantium dignissimos doloremque ex porro quidem nemo, magnam quia voluptates odio obcaecati officia laborum. </p><p>Lorem, ipsum dolor sit amet consectetur adipisicing elit. Eum necessitatibus, quis doloribus soluta quae officia. Ab incidunt cum voluptate pariatur inventore doloribus ut consequuntur similique minus, asperiores temporibus vel? At sunt doloremque nesciunt eveniet! Ipsam voluptate suscipit vel veritatis ut accusantium dignissimos doloremque ex porro quidem nemo, magnam quia voluptates odio obcaecati officia laborum. </p>"
        },
        {
            "title": "The cheapest coffee on the market",
            "date": "12-07-2021",
            "image": "./assets/images/posts/post_thumbnail-1.png",
            "text": "<p>Lorem, ipsum dolor sit amet consectetur adipisicing elit. Eum necessitatibus, quis doloribus soluta quae officia. Ab incidunt cum voluptate pariatur inventore doloribus ut consequuntur similique minus, asperiores temporibus vel? At sunt doloremque nesciunt eveniet! Ipsam voluptate suscipit vel veritatis ut accusantium dignissimos doloremque ex porro quidem nemo, magnam quia voluptates odio obcaecati officia laborum. </p><p>Lorem, ipsum dolor sit amet consectetur adipisicing elit. Eum necessitatibus, quis doloribus soluta quae officia. Ab incidunt cum voluptate pariatur inventore doloribus ut consequuntur similique minus, asperiores temporibus vel? At sunt doloremque nesciunt eveniet! Ipsam voluptate suscipit vel veritatis ut accusantium dignissimos doloremque ex porro quidem nemo, magnam quia voluptates odio obcaecati officia laborum. </p><p>Lorem, ipsum dolor sit amet consectetur adipisicing elit. Eum necessitatibus, quis doloribus soluta quae officia. Ab incidunt cum voluptate pariatur inventore doloribus ut consequuntur similique minus, asperiores temporibus vel? At sunt doloremque nesciunt eveniet! Ipsam voluptate suscipit vel veritatis ut accusantium dignissimos doloremque ex porro quidem nemo, magnam quia voluptates odio obcaecati officia laborum. </p><p>Lorem, ipsum dolor sit amet consectetur adipisicing elit. Eum necessitatibus, quis doloribus soluta quae officia. Ab incidunt cum voluptate pariatur inventore doloribus ut consequuntur similique minus, asperiores temporibus vel? At sunt doloremque nesciunt eveniet! Ipsam voluptate suscipit vel veritatis ut accusantium dignissimos doloremque ex porro quidem nemo, magnam quia voluptates odio obcaecati officia laborum. </p><p>Lorem, ipsum dolor sit amet consectetur adipisicing elit. Eum necessitatibus, quis doloribus soluta quae officia. Ab incidunt cum voluptate pariatur inventore doloribus ut consequuntur similique minus, asperiores temporibus vel? At sunt doloremque nesciunt eveniet! Ipsam voluptate suscipit vel veritatis ut accusantium dignissimos doloremque ex porro quidem nemo, magnam quia voluptates odio obcaecati officia laborum. </p><p>Lorem, ipsum dolor sit amet consectetur adipisicing elit. Eum necessitatibus, quis doloribus soluta quae officia. Ab incidunt cum voluptate pariatur inventore doloribus ut consequuntur similique minus, asperiores temporibus vel? At sunt doloremque nesciunt eveniet! Ipsam voluptate suscipit vel veritatis ut accusantium dignissimos doloremque ex porro quidem nemo, magnam quia voluptates odio obcaecati officia laborum. </p><p>Lorem, ipsum dolor sit amet consectetur adipisicing elit. Eum necessitatibus, quis doloribus soluta quae officia. Ab incidunt cum voluptate pariatur inventore doloribus ut consequuntur similique minus, asperiores temporibus vel? At sunt doloremque nesciunt eveniet! Ipsam voluptate suscipit vel veritatis ut accusantium dignissimos doloremque ex porro quidem nemo, magnam quia voluptates odio obcaecati officia laborum. </p><p>Lorem, ipsum dolor sit amet consectetur adipisicing elit. Eum necessitatibus, quis doloribus soluta quae officia. Ab incidunt cum voluptate pariatur inventore doloribus ut consequuntur similique minus, asperiores temporibus vel? At sunt doloremque nesciunt eveniet! Ipsam voluptate suscipit vel veritatis ut accusantium dignissimos doloremque ex porro quidem nemo, magnam quia voluptates odio obcaecati officia laborum. </p><p>Lorem, ipsum dolor sit amet consectetur adipisicing elit. Eum necessitatibus, quis doloribus soluta quae officia. Ab incidunt cum voluptate pariatur inventore doloribus ut consequuntur similique minus, asperiores temporibus vel? At sunt doloremque nesciunt eveniet! Ipsam voluptate suscipit vel veritatis ut accusantium dignissimos doloremque ex porro quidem nemo, magnam quia voluptates odio obcaecati officia laborum. </p><p>Lorem, ipsum dolor sit amet consectetur adipisicing elit. Eum necessitatibus, quis doloribus soluta quae officia. Ab incidunt cum voluptate pariatur inventore doloribus ut consequuntur similique minus, asperiores temporibus vel? At sunt doloremque nesciunt eveniet! Ipsam voluptate suscipit vel veritatis ut accusantium dignissimos doloremque ex porro quidem nemo, magnam quia voluptates odio obcaecati officia laborum. </p>"
        },
        {
            "title": "How to get coffee beans during lockdown",
            "date": "12-07-2021",
            "image": "./assets/images/posts/post_thumbnail-4.png",
            "text": "<p>Lorem, ipsum dolor sit amet consectetur adipisicing elit. Eum necessitatibus, quis doloribus soluta quae officia. Ab incidunt cum voluptate pariatur inventore doloribus ut consequuntur similique minus, asperiores temporibus vel? At sunt doloremque nesciunt eveniet! Ipsam voluptate suscipit vel veritatis ut accusantium dignissimos doloremque ex porro quidem nemo, magnam quia voluptates odio obcaecati officia laborum. </p><p>Lorem, ipsum dolor sit amet consectetur adipisicing elit. Eum necessitatibus, quis doloribus soluta quae officia. Ab incidunt cum voluptate pariatur inventore doloribus ut consequuntur similique minus, asperiores temporibus vel? At sunt doloremque nesciunt eveniet! Ipsam voluptate suscipit vel veritatis ut accusantium dignissimos doloremque ex porro quidem nemo, magnam quia voluptates odio obcaecati officia laborum. </p><p>Lorem, ipsum dolor sit amet consectetur adipisicing elit. Eum necessitatibus, quis doloribus soluta quae officia. Ab incidunt cum voluptate pariatur inventore doloribus ut consequuntur similique minus, asperiores temporibus vel? At sunt doloremque nesciunt eveniet! Ipsam voluptate suscipit vel veritatis ut accusantium dignissimos doloremque ex porro quidem nemo, magnam quia voluptates odio obcaecati officia laborum. </p><p>Lorem, ipsum dolor sit amet consectetur adipisicing elit. Eum necessitatibus, quis doloribus soluta quae officia. Ab incidunt cum voluptate pariatur inventore doloribus ut consequuntur similique minus, asperiores temporibus vel? At sunt doloremque nesciunt eveniet! Ipsam voluptate suscipit vel veritatis ut accusantium dignissimos doloremque ex porro quidem nemo, magnam quia voluptates odio obcaecati officia laborum. </p><p>Lorem, ipsum dolor sit amet consectetur adipisicing elit. Eum necessitatibus, quis doloribus soluta quae officia. Ab incidunt cum voluptate pariatur inventore doloribus ut consequuntur similique minus, asperiores temporibus vel? At sunt doloremque nesciunt eveniet! Ipsam voluptate suscipit vel veritatis ut accusantium dignissimos doloremque ex porro quidem nemo, magnam quia voluptates odio obcaecati officia laborum. </p><p>Lorem, ipsum dolor sit amet consectetur adipisicing elit. Eum necessitatibus, quis doloribus soluta quae officia. Ab incidunt cum voluptate pariatur inventore doloribus ut consequuntur similique minus, asperiores temporibus vel? At sunt doloremque nesciunt eveniet! Ipsam voluptate suscipit vel veritatis ut accusantium dignissimos doloremque ex porro quidem nemo, magnam quia voluptates odio obcaecati officia laborum. </p><p>Lorem, ipsum dolor sit amet consectetur adipisicing elit. Eum necessitatibus, quis doloribus soluta quae officia. Ab incidunt cum voluptate pariatur inventore doloribus ut consequuntur similique minus, asperiores temporibus vel? At sunt doloremque nesciunt eveniet! Ipsam voluptate suscipit vel veritatis ut accusantium dignissimos doloremque ex porro quidem nemo, magnam quia voluptates odio obcaecati officia laborum. </p><p>Lorem, ipsum dolor sit amet consectetur adipisicing elit. Eum necessitatibus, quis doloribus soluta quae officia. Ab incidunt cum voluptate pariatur inventore doloribus ut consequuntur similique minus, asperiores temporibus vel? At sunt doloremque nesciunt eveniet! Ipsam voluptate suscipit vel veritatis ut accusantium dignissimos doloremque ex porro quidem nemo, magnam quia voluptates odio obcaecati officia laborum. </p><p>Lorem, ipsum dolor sit amet consectetur adipisicing elit. Eum necessitatibus, quis doloribus soluta quae officia. Ab incidunt cum voluptate pariatur inventore doloribus ut consequuntur similique minus, asperiores temporibus vel? At sunt doloremque nesciunt eveniet! Ipsam voluptate suscipit vel veritatis ut accusantium dignissimos doloremque ex porro quidem nemo, magnam quia voluptates odio obcaecati officia laborum. </p><p>Lorem, ipsum dolor sit amet consectetur adipisicing elit. Eum necessitatibus, quis doloribus soluta quae officia. Ab incidunt cum voluptate pariatur inventore doloribus ut consequuntur similique minus, asperiores temporibus vel? At sunt doloremque nesciunt eveniet! Ipsam voluptate suscipit vel veritatis ut accusantium dignissimos doloremque ex porro quidem nemo, magnam quia voluptates odio obcaecati officia laborum. </p>"
        },
        {
            "title": "How to make a great coffee in only 10 min",
            "date": "12-07-2020",
            "image": "./assets/images/posts/post_thumbnail-3.png",
            "text": "<p>Lorem, ipsum dolor sit amet consectetur adipisicing elit. Eum necessitatibus, quis doloribus soluta quae officia. Ab incidunt cum voluptate pariatur inventore doloribus ut consequuntur similique minus, asperiores temporibus vel? At sunt doloremque nesciunt eveniet! Ipsam voluptate suscipit vel veritatis ut accusantium dignissimos doloremque ex porro quidem nemo, magnam quia voluptates odio obcaecati officia laborum. </p><p>Lorem, ipsum dolor sit amet consectetur adipisicing elit. Eum necessitatibus, quis doloribus soluta quae officia. Ab incidunt cum voluptate pariatur inventore doloribus ut consequuntur similique minus, asperiores temporibus vel? At sunt doloremque nesciunt eveniet! Ipsam voluptate suscipit vel veritatis ut accusantium dignissimos doloremque ex porro quidem nemo, magnam quia voluptates odio obcaecati officia laborum. </p><p>Lorem, ipsum dolor sit amet consectetur adipisicing elit. Eum necessitatibus, quis doloribus soluta quae officia. Ab incidunt cum voluptate pariatur inventore doloribus ut consequuntur similique minus, asperiores temporibus vel? At sunt doloremque nesciunt eveniet! Ipsam voluptate suscipit vel veritatis ut accusantium dignissimos doloremque ex porro quidem nemo, magnam quia voluptates odio obcaecati officia laborum. </p><p>Lorem, ipsum dolor sit amet consectetur adipisicing elit. Eum necessitatibus, quis doloribus soluta quae officia. Ab incidunt cum voluptate pariatur inventore doloribus ut consequuntur similique minus, asperiores temporibus vel? At sunt doloremque nesciunt eveniet! Ipsam voluptate suscipit vel veritatis ut accusantium dignissimos doloremque ex porro quidem nemo, magnam quia voluptates odio obcaecati officia laborum. </p><p>Lorem, ipsum dolor sit amet consectetur adipisicing elit. Eum necessitatibus, quis doloribus soluta quae officia. Ab incidunt cum voluptate pariatur inventore doloribus ut consequuntur similique minus, asperiores temporibus vel? At sunt doloremque nesciunt eveniet! Ipsam voluptate suscipit vel veritatis ut accusantium dignissimos doloremque ex porro quidem nemo, magnam quia voluptates odio obcaecati officia laborum. </p><p>Lorem, ipsum dolor sit amet consectetur adipisicing elit. Eum necessitatibus, quis doloribus soluta quae officia. Ab incidunt cum voluptate pariatur inventore doloribus ut consequuntur similique minus, asperiores temporibus vel? At sunt doloremque nesciunt eveniet! Ipsam voluptate suscipit vel veritatis ut accusantium dignissimos doloremque ex porro quidem nemo, magnam quia voluptates odio obcaecati officia laborum. </p><p>Lorem, ipsum dolor sit amet consectetur adipisicing elit. Eum necessitatibus, quis doloribus soluta quae officia. Ab incidunt cum voluptate pariatur inventore doloribus ut consequuntur similique minus, asperiores temporibus vel? At sunt doloremque nesciunt eveniet! Ipsam voluptate suscipit vel veritatis ut accusantium dignissimos doloremque ex porro quidem nemo, magnam quia voluptates odio obcaecati officia laborum. </p><p>Lorem, ipsum dolor sit amet consectetur adipisicing elit. Eum necessitatibus, quis doloribus soluta quae officia. Ab incidunt cum voluptate pariatur inventore doloribus ut consequuntur similique minus, asperiores temporibus vel? At sunt doloremque nesciunt eveniet! Ipsam voluptate suscipit vel veritatis ut accusantium dignissimos doloremque ex porro quidem nemo, magnam quia voluptates odio obcaecati officia laborum. </p><p>Lorem, ipsum dolor sit amet consectetur adipisicing elit. Eum necessitatibus, quis doloribus soluta quae officia. Ab incidunt cum voluptate pariatur inventore doloribus ut consequuntur similique minus, asperiores temporibus vel? At sunt doloremque nesciunt eveniet! Ipsam voluptate suscipit vel veritatis ut accusantium dignissimos doloremque ex porro quidem nemo, magnam quia voluptates odio obcaecati officia laborum. </p><p>Lorem, ipsum dolor sit amet consectetur adipisicing elit. Eum necessitatibus, quis doloribus soluta quae officia. Ab incidunt cum voluptate pariatur inventore doloribus ut consequuntur similique minus, asperiores temporibus vel? At sunt doloremque nesciunt eveniet! Ipsam voluptate suscipit vel veritatis ut accusantium dignissimos doloremque ex porro quidem nemo, magnam quia voluptates odio obcaecati officia laborum. </p>"
        },
        {
            "title": "Denmark's baristas are the best here's why",
            "date": "12-07-2020",
            "image": "./assets/images/posts/post_thumbnail-2.png",
            "text": "<p>Lorem, ipsum dolor sit amet consectetur adipisicing elit. Eum necessitatibus, quis doloribus soluta quae officia. Ab incidunt cum voluptate pariatur inventore doloribus ut consequuntur similique minus, asperiores temporibus vel? At sunt doloremque nesciunt eveniet! Ipsam voluptate suscipit vel veritatis ut accusantium dignissimos doloremque ex porro quidem nemo, magnam quia voluptates odio obcaecati officia laborum. </p><p>Lorem, ipsum dolor sit amet consectetur adipisicing elit. Eum necessitatibus, quis doloribus soluta quae officia. Ab incidunt cum voluptate pariatur inventore doloribus ut consequuntur similique minus, asperiores temporibus vel? At sunt doloremque nesciunt eveniet! Ipsam voluptate suscipit vel veritatis ut accusantium dignissimos doloremque ex porro quidem nemo, magnam quia voluptates odio obcaecati officia laborum. </p><p>Lorem, ipsum dolor sit amet consectetur adipisicing elit. Eum necessitatibus, quis doloribus soluta quae officia. Ab incidunt cum voluptate pariatur inventore doloribus ut consequuntur similique minus, asperiores temporibus vel? At sunt doloremque nesciunt eveniet! Ipsam voluptate suscipit vel veritatis ut accusantium dignissimos doloremque ex porro quidem nemo, magnam quia voluptates odio obcaecati officia laborum. </p><p>Lorem, ipsum dolor sit amet consectetur adipisicing elit. Eum necessitatibus, quis doloribus soluta quae officia. Ab incidunt cum voluptate pariatur inventore doloribus ut consequuntur similique minus, asperiores temporibus vel? At sunt doloremque nesciunt eveniet! Ipsam voluptate suscipit vel veritatis ut accusantium dignissimos doloremque ex porro quidem nemo, magnam quia voluptates odio obcaecati officia laborum. </p><p>Lorem, ipsum dolor sit amet consectetur adipisicing elit. Eum necessitatibus, quis doloribus soluta quae officia. Ab incidunt cum voluptate pariatur inventore doloribus ut consequuntur similique minus, asperiores temporibus vel? At sunt doloremque nesciunt eveniet! Ipsam voluptate suscipit vel veritatis ut accusantium dignissimos doloremque ex porro quidem nemo, magnam quia voluptates odio obcaecati officia laborum. </p><p>Lorem, ipsum dolor sit amet consectetur adipisicing elit. Eum necessitatibus, quis doloribus soluta quae officia. Ab incidunt cum voluptate pariatur inventore doloribus ut consequuntur similique minus, asperiores temporibus vel? At sunt doloremque nesciunt eveniet! Ipsam voluptate suscipit vel veritatis ut accusantium dignissimos doloremque ex porro quidem nemo, magnam quia voluptates odio obcaecati officia laborum. </p><p>Lorem, ipsum dolor sit amet consectetur adipisicing elit. Eum necessitatibus, quis doloribus soluta quae officia. Ab incidunt cum voluptate pariatur inventore doloribus ut consequuntur similique minus, asperiores temporibus vel? At sunt doloremque nesciunt eveniet! Ipsam voluptate suscipit vel veritatis ut accusantium dignissimos doloremque ex porro quidem nemo, magnam quia voluptates odio obcaecati officia laborum. </p><p>Lorem, ipsum dolor sit amet consectetur adipisicing elit. Eum necessitatibus, quis doloribus soluta quae officia. Ab incidunt cum voluptate pariatur inventore doloribus ut consequuntur similique minus, asperiores temporibus vel? At sunt doloremque nesciunt eveniet! Ipsam voluptate suscipit vel veritatis ut accusantium dignissimos doloremque ex porro quidem nemo, magnam quia voluptates odio obcaecati officia laborum. </p><p>Lorem, ipsum dolor sit amet consectetur adipisicing elit. Eum necessitatibus, quis doloribus soluta quae officia. Ab incidunt cum voluptate pariatur inventore doloribus ut consequuntur similique minus, asperiores temporibus vel? At sunt doloremque nesciunt eveniet! Ipsam voluptate suscipit vel veritatis ut accusantium dignissimos doloremque ex porro quidem nemo, magnam quia voluptates odio obcaecati officia laborum. </p><p>Lorem, ipsum dolor sit amet consectetur adipisicing elit. Eum necessitatibus, quis doloribus soluta quae officia. Ab incidunt cum voluptate pariatur inventore doloribus ut consequuntur similique minus, asperiores temporibus vel? At sunt doloremque nesciunt eveniet! Ipsam voluptate suscipit vel veritatis ut accusantium dignissimos doloremque ex porro quidem nemo, magnam quia voluptates odio obcaecati officia laborum. </p>"
        },
        {
            "title": "The best afordable coffee on the market",
            "date": "12-07-2020",
            "image": "./assets/images/posts/post_thumbnail-4.png",
            "text": "<p>Lorem, ipsum dolor sit amet consectetur adipisicing elit. Eum necessitatibus, quis doloribus soluta quae officia. Ab incidunt cum voluptate pariatur inventore doloribus ut consequuntur similique minus, asperiores temporibus vel? At sunt doloremque nesciunt eveniet! Ipsam voluptate suscipit vel veritatis ut accusantium dignissimos doloremque ex porro quidem nemo, magnam quia voluptates odio obcaecati officia laborum. </p><p>Lorem, ipsum dolor sit amet consectetur adipisicing elit. Eum necessitatibus, quis doloribus soluta quae officia. Ab incidunt cum voluptate pariatur inventore doloribus ut consequuntur similique minus, asperiores temporibus vel? At sunt doloremque nesciunt eveniet! Ipsam voluptate suscipit vel veritatis ut accusantium dignissimos doloremque ex porro quidem nemo, magnam quia voluptates odio obcaecati officia laborum. </p><p>Lorem, ipsum dolor sit amet consectetur adipisicing elit. Eum necessitatibus, quis doloribus soluta quae officia. Ab incidunt cum voluptate pariatur inventore doloribus ut consequuntur similique minus, asperiores temporibus vel? At sunt doloremque nesciunt eveniet! Ipsam voluptate suscipit vel veritatis ut accusantium dignissimos doloremque ex porro quidem nemo, magnam quia voluptates odio obcaecati officia laborum. </p><p>Lorem, ipsum dolor sit amet consectetur adipisicing elit. Eum necessitatibus, quis doloribus soluta quae officia. Ab incidunt cum voluptate pariatur inventore doloribus ut consequuntur similique minus, asperiores temporibus vel? At sunt doloremque nesciunt eveniet! Ipsam voluptate suscipit vel veritatis ut accusantium dignissimos doloremque ex porro quidem nemo, magnam quia voluptates odio obcaecati officia laborum. </p><p>Lorem, ipsum dolor sit amet consectetur adipisicing elit. Eum necessitatibus, quis doloribus soluta quae officia. Ab incidunt cum voluptate pariatur inventore doloribus ut consequuntur similique minus, asperiores temporibus vel? At sunt doloremque nesciunt eveniet! Ipsam voluptate suscipit vel veritatis ut accusantium dignissimos doloremque ex porro quidem nemo, magnam quia voluptates odio obcaecati officia laborum. </p><p>Lorem, ipsum dolor sit amet consectetur adipisicing elit. Eum necessitatibus, quis doloribus soluta quae officia. Ab incidunt cum voluptate pariatur inventore doloribus ut consequuntur similique minus, asperiores temporibus vel? At sunt doloremque nesciunt eveniet! Ipsam voluptate suscipit vel veritatis ut accusantium dignissimos doloremque ex porro quidem nemo, magnam quia voluptates odio obcaecati officia laborum. </p><p>Lorem, ipsum dolor sit amet consectetur adipisicing elit. Eum necessitatibus, quis doloribus soluta quae officia. Ab incidunt cum voluptate pariatur inventore doloribus ut consequuntur similique minus, asperiores temporibus vel? At sunt doloremque nesciunt eveniet! Ipsam voluptate suscipit vel veritatis ut accusantium dignissimos doloremque ex porro quidem nemo, magnam quia voluptates odio obcaecati officia laborum. </p><p>Lorem, ipsum dolor sit amet consectetur adipisicing elit. Eum necessitatibus, quis doloribus soluta quae officia. Ab incidunt cum voluptate pariatur inventore doloribus ut consequuntur similique minus, asperiores temporibus vel? At sunt doloremque nesciunt eveniet! Ipsam voluptate suscipit vel veritatis ut accusantium dignissimos doloremque ex porro quidem nemo, magnam quia voluptates odio obcaecati officia laborum. </p><p>Lorem, ipsum dolor sit amet consectetur adipisicing elit. Eum necessitatibus, quis doloribus soluta quae officia. Ab incidunt cum voluptate pariatur inventore doloribus ut consequuntur similique minus, asperiores temporibus vel? At sunt doloremque nesciunt eveniet! Ipsam voluptate suscipit vel veritatis ut accusantium dignissimos doloremque ex porro quidem nemo, magnam quia voluptates odio obcaecati officia laborum. </p><p>Lorem, ipsum dolor sit amet consectetur adipisicing elit. Eum necessitatibus, quis doloribus soluta quae officia. Ab incidunt cum voluptate pariatur inventore doloribus ut consequuntur similique minus, asperiores temporibus vel? At sunt doloremque nesciunt eveniet! Ipsam voluptate suscipit vel veritatis ut accusantium dignissimos doloremque ex porro quidem nemo, magnam quia voluptates odio obcaecati officia laborum. </p>"
        },
        {
            "title": "Wonder copenhagen 2020",
            "date": "12-07-2020",
            "image": "./assets/images/posts/post_thumbnail-2.png",
            "text": "<p>Lorem, ipsum dolor sit amet consectetur adipisicing elit. Eum necessitatibus, quis doloribus soluta quae officia. Ab incidunt cum voluptate pariatur inventore doloribus ut consequuntur similique minus, asperiores temporibus vel? At sunt doloremque nesciunt eveniet! Ipsam voluptate suscipit vel veritatis ut accusantium dignissimos doloremque ex porro quidem nemo, magnam quia voluptates odio obcaecati officia laborum. </p><p>Lorem, ipsum dolor sit amet consectetur adipisicing elit. Eum necessitatibus, quis doloribus soluta quae officia. Ab incidunt cum voluptate pariatur inventore doloribus ut consequuntur similique minus, asperiores temporibus vel? At sunt doloremque nesciunt eveniet! Ipsam voluptate suscipit vel veritatis ut accusantium dignissimos doloremque ex porro quidem nemo, magnam quia voluptates odio obcaecati officia laborum. </p><p>Lorem, ipsum dolor sit amet consectetur adipisicing elit. Eum necessitatibus, quis doloribus soluta quae officia. Ab incidunt cum voluptate pariatur inventore doloribus ut consequuntur similique minus, asperiores temporibus vel? At sunt doloremque nesciunt eveniet! Ipsam voluptate suscipit vel veritatis ut accusantium dignissimos doloremque ex porro quidem nemo, magnam quia voluptates odio obcaecati officia laborum. </p><p>Lorem, ipsum dolor sit amet consectetur adipisicing elit. Eum necessitatibus, quis doloribus soluta quae officia. Ab incidunt cum voluptate pariatur inventore doloribus ut consequuntur similique minus, asperiores temporibus vel? At sunt doloremque nesciunt eveniet! Ipsam voluptate suscipit vel veritatis ut accusantium dignissimos doloremque ex porro quidem nemo, magnam quia voluptates odio obcaecati officia laborum. </p><p>Lorem, ipsum dolor sit amet consectetur adipisicing elit. Eum necessitatibus, quis doloribus soluta quae officia. Ab incidunt cum voluptate pariatur inventore doloribus ut consequuntur similique minus, asperiores temporibus vel? At sunt doloremque nesciunt eveniet! Ipsam voluptate suscipit vel veritatis ut accusantium dignissimos doloremque ex porro quidem nemo, magnam quia voluptates odio obcaecati officia laborum. </p><p>Lorem, ipsum dolor sit amet consectetur adipisicing elit. Eum necessitatibus, quis doloribus soluta quae officia. Ab incidunt cum voluptate pariatur inventore doloribus ut consequuntur similique minus, asperiores temporibus vel? At sunt doloremque nesciunt eveniet! Ipsam voluptate suscipit vel veritatis ut accusantium dignissimos doloremque ex porro quidem nemo, magnam quia voluptates odio obcaecati officia laborum. </p><p>Lorem, ipsum dolor sit amet consectetur adipisicing elit. Eum necessitatibus, quis doloribus soluta quae officia. Ab incidunt cum voluptate pariatur inventore doloribus ut consequuntur similique minus, asperiores temporibus vel? At sunt doloremque nesciunt eveniet! Ipsam voluptate suscipit vel veritatis ut accusantium dignissimos doloremque ex porro quidem nemo, magnam quia voluptates odio obcaecati officia laborum. </p><p>Lorem, ipsum dolor sit amet consectetur adipisicing elit. Eum necessitatibus, quis doloribus soluta quae officia. Ab incidunt cum voluptate pariatur inventore doloribus ut consequuntur similique minus, asperiores temporibus vel? At sunt doloremque nesciunt eveniet! Ipsam voluptate suscipit vel veritatis ut accusantium dignissimos doloremque ex porro quidem nemo, magnam quia voluptates odio obcaecati officia laborum. </p><p>Lorem, ipsum dolor sit amet consectetur adipisicing elit. Eum necessitatibus, quis doloribus soluta quae officia. Ab incidunt cum voluptate pariatur inventore doloribus ut consequuntur similique minus, asperiores temporibus vel? At sunt doloremque nesciunt eveniet! Ipsam voluptate suscipit vel veritatis ut accusantium dignissimos doloremque ex porro quidem nemo, magnam quia voluptates odio obcaecati officia laborum. </p><p>Lorem, ipsum dolor sit amet consectetur adipisicing elit. Eum necessitatibus, quis doloribus soluta quae officia. Ab incidunt cum voluptate pariatur inventore doloribus ut consequuntur similique minus, asperiores temporibus vel? At sunt doloremque nesciunt eveniet! Ipsam voluptate suscipit vel veritatis ut accusantium dignissimos doloremque ex porro quidem nemo, magnam quia voluptates odio obcaecati officia laborum. </p>"
        },
        {
            "title": "Get your barista knowlegde here",
            "date": "12-07-2020",
            "image": "./assets/images/posts/post_thumbnail-1.png",
            "text": "<p>Lorem, ipsum dolor sit amet consectetur adipisicing elit. Eum necessitatibus, quis doloribus soluta quae officia. Ab incidunt cum voluptate pariatur inventore doloribus ut consequuntur similique minus, asperiores temporibus vel? At sunt doloremque nesciunt eveniet! Ipsam voluptate suscipit vel veritatis ut accusantium dignissimos doloremque ex porro quidem nemo, magnam quia voluptates odio obcaecati officia laborum. </p><p>Lorem, ipsum dolor sit amet consectetur adipisicing elit. Eum necessitatibus, quis doloribus soluta quae officia. Ab incidunt cum voluptate pariatur inventore doloribus ut consequuntur similique minus, asperiores temporibus vel? At sunt doloremque nesciunt eveniet! Ipsam voluptate suscipit vel veritatis ut accusantium dignissimos doloremque ex porro quidem nemo, magnam quia voluptates odio obcaecati officia laborum. </p><p>Lorem, ipsum dolor sit amet consectetur adipisicing elit. Eum necessitatibus, quis doloribus soluta quae officia. Ab incidunt cum voluptate pariatur inventore doloribus ut consequuntur similique minus, asperiores temporibus vel? At sunt doloremque nesciunt eveniet! Ipsam voluptate suscipit vel veritatis ut accusantium dignissimos doloremque ex porro quidem nemo, magnam quia voluptates odio obcaecati officia laborum. </p><p>Lorem, ipsum dolor sit amet consectetur adipisicing elit. Eum necessitatibus, quis doloribus soluta quae officia. Ab incidunt cum voluptate pariatur inventore doloribus ut consequuntur similique minus, asperiores temporibus vel? At sunt doloremque nesciunt eveniet! Ipsam voluptate suscipit vel veritatis ut accusantium dignissimos doloremque ex porro quidem nemo, magnam quia voluptates odio obcaecati officia laborum. </p><p>Lorem, ipsum dolor sit amet consectetur adipisicing elit. Eum necessitatibus, quis doloribus soluta quae officia. Ab incidunt cum voluptate pariatur inventore doloribus ut consequuntur similique minus, asperiores temporibus vel? At sunt doloremque nesciunt eveniet! Ipsam voluptate suscipit vel veritatis ut accusantium dignissimos doloremque ex porro quidem nemo, magnam quia voluptates odio obcaecati officia laborum. </p><p>Lorem, ipsum dolor sit amet consectetur adipisicing elit. Eum necessitatibus, quis doloribus soluta quae officia. Ab incidunt cum voluptate pariatur inventore doloribus ut consequuntur similique minus, asperiores temporibus vel? At sunt doloremque nesciunt eveniet! Ipsam voluptate suscipit vel veritatis ut accusantium dignissimos doloremque ex porro quidem nemo, magnam quia voluptates odio obcaecati officia laborum. </p><p>Lorem, ipsum dolor sit amet consectetur adipisicing elit. Eum necessitatibus, quis doloribus soluta quae officia. Ab incidunt cum voluptate pariatur inventore doloribus ut consequuntur similique minus, asperiores temporibus vel? At sunt doloremque nesciunt eveniet! Ipsam voluptate suscipit vel veritatis ut accusantium dignissimos doloremque ex porro quidem nemo, magnam quia voluptates odio obcaecati officia laborum. </p><p>Lorem, ipsum dolor sit amet consectetur adipisicing elit. Eum necessitatibus, quis doloribus soluta quae officia. Ab incidunt cum voluptate pariatur inventore doloribus ut consequuntur similique minus, asperiores temporibus vel? At sunt doloremque nesciunt eveniet! Ipsam voluptate suscipit vel veritatis ut accusantium dignissimos doloremque ex porro quidem nemo, magnam quia voluptates odio obcaecati officia laborum. </p><p>Lorem, ipsum dolor sit amet consectetur adipisicing elit. Eum necessitatibus, quis doloribus soluta quae officia. Ab incidunt cum voluptate pariatur inventore doloribus ut consequuntur similique minus, asperiores temporibus vel? At sunt doloremque nesciunt eveniet! Ipsam voluptate suscipit vel veritatis ut accusantium dignissimos doloremque ex porro quidem nemo, magnam quia voluptates odio obcaecati officia laborum. </p><p>Lorem, ipsum dolor sit amet consectetur adipisicing elit. Eum necessitatibus, quis doloribus soluta quae officia. Ab incidunt cum voluptate pariatur inventore doloribus ut consequuntur similique minus, asperiores temporibus vel? At sunt doloremque nesciunt eveniet! Ipsam voluptate suscipit vel veritatis ut accusantium dignissimos doloremque ex porro quidem nemo, magnam quia voluptates odio obcaecati officia laborum. </p>"
        },
        {
            "title": "Top 10 reasons starbucks scams you",
            "date": "12-07-2019",
            "image": "./assets/images/posts/post_thumbnail-3.png",
            "text": "<p>Lorem, ipsum dolor sit amet consectetur adipisicing elit. Eum necessitatibus, quis doloribus soluta quae officia. Ab incidunt cum voluptate pariatur inventore doloribus ut consequuntur similique minus, asperiores temporibus vel? At sunt doloremque nesciunt eveniet! Ipsam voluptate suscipit vel veritatis ut accusantium dignissimos doloremque ex porro quidem nemo, magnam quia voluptates odio obcaecati officia laborum. </p><p>Lorem, ipsum dolor sit amet consectetur adipisicing elit. Eum necessitatibus, quis doloribus soluta quae officia. Ab incidunt cum voluptate pariatur inventore doloribus ut consequuntur similique minus, asperiores temporibus vel? At sunt doloremque nesciunt eveniet! Ipsam voluptate suscipit vel veritatis ut accusantium dignissimos doloremque ex porro quidem nemo, magnam quia voluptates odio obcaecati officia laborum. </p><p>Lorem, ipsum dolor sit amet consectetur adipisicing elit. Eum necessitatibus, quis doloribus soluta quae officia. Ab incidunt cum voluptate pariatur inventore doloribus ut consequuntur similique minus, asperiores temporibus vel? At sunt doloremque nesciunt eveniet! Ipsam voluptate suscipit vel veritatis ut accusantium dignissimos doloremque ex porro quidem nemo, magnam quia voluptates odio obcaecati officia laborum. </p><p>Lorem, ipsum dolor sit amet consectetur adipisicing elit. Eum necessitatibus, quis doloribus soluta quae officia. Ab incidunt cum voluptate pariatur inventore doloribus ut consequuntur similique minus, asperiores temporibus vel? At sunt doloremque nesciunt eveniet! Ipsam voluptate suscipit vel veritatis ut accusantium dignissimos doloremque ex porro quidem nemo, magnam quia voluptates odio obcaecati officia laborum. </p><p>Lorem, ipsum dolor sit amet consectetur adipisicing elit. Eum necessitatibus, quis doloribus soluta quae officia. Ab incidunt cum voluptate pariatur inventore doloribus ut consequuntur similique minus, asperiores temporibus vel? At sunt doloremque nesciunt eveniet! Ipsam voluptate suscipit vel veritatis ut accusantium dignissimos doloremque ex porro quidem nemo, magnam quia voluptates odio obcaecati officia laborum. </p><p>Lorem, ipsum dolor sit amet consectetur adipisicing elit. Eum necessitatibus, quis doloribus soluta quae officia. Ab incidunt cum voluptate pariatur inventore doloribus ut consequuntur similique minus, asperiores temporibus vel? At sunt doloremque nesciunt eveniet! Ipsam voluptate suscipit vel veritatis ut accusantium dignissimos doloremque ex porro quidem nemo, magnam quia voluptates odio obcaecati officia laborum. </p><p>Lorem, ipsum dolor sit amet consectetur adipisicing elit. Eum necessitatibus, quis doloribus soluta quae officia. Ab incidunt cum voluptate pariatur inventore doloribus ut consequuntur similique minus, asperiores temporibus vel? At sunt doloremque nesciunt eveniet! Ipsam voluptate suscipit vel veritatis ut accusantium dignissimos doloremque ex porro quidem nemo, magnam quia voluptates odio obcaecati officia laborum. </p><p>Lorem, ipsum dolor sit amet consectetur adipisicing elit. Eum necessitatibus, quis doloribus soluta quae officia. Ab incidunt cum voluptate pariatur inventore doloribus ut consequuntur similique minus, asperiores temporibus vel? At sunt doloremque nesciunt eveniet! Ipsam voluptate suscipit vel veritatis ut accusantium dignissimos doloremque ex porro quidem nemo, magnam quia voluptates odio obcaecati officia laborum. </p><p>Lorem, ipsum dolor sit amet consectetur adipisicing elit. Eum necessitatibus, quis doloribus soluta quae officia. Ab incidunt cum voluptate pariatur inventore doloribus ut consequuntur similique minus, asperiores temporibus vel? At sunt doloremque nesciunt eveniet! Ipsam voluptate suscipit vel veritatis ut accusantium dignissimos doloremque ex porro quidem nemo, magnam quia voluptates odio obcaecati officia laborum. </p><p>Lorem, ipsum dolor sit amet consectetur adipisicing elit. Eum necessitatibus, quis doloribus soluta quae officia. Ab incidunt cum voluptate pariatur inventore doloribus ut consequuntur similique minus, asperiores temporibus vel? At sunt doloremque nesciunt eveniet! Ipsam voluptate suscipit vel veritatis ut accusantium dignissimos doloremque ex porro quidem nemo, magnam quia voluptates odio obcaecati officia laborum. </p>"
        },
        {
            "title": "Best places to buy your beans",
            "date": "12-07-2019",
            "image": "./assets/images/posts/post_thumbnail-1.png",
            "text": "<p>Lorem, ipsum dolor sit amet consectetur adipisicing elit. Eum necessitatibus, quis doloribus soluta quae officia. Ab incidunt cum voluptate pariatur inventore doloribus ut consequuntur similique minus, asperiores temporibus vel? At sunt doloremque nesciunt eveniet! Ipsam voluptate suscipit vel veritatis ut accusantium dignissimos doloremque ex porro quidem nemo, magnam quia voluptates odio obcaecati officia laborum. </p><p>Lorem, ipsum dolor sit amet consectetur adipisicing elit. Eum necessitatibus, quis doloribus soluta quae officia. Ab incidunt cum voluptate pariatur inventore doloribus ut consequuntur similique minus, asperiores temporibus vel? At sunt doloremque nesciunt eveniet! Ipsam voluptate suscipit vel veritatis ut accusantium dignissimos doloremque ex porro quidem nemo, magnam quia voluptates odio obcaecati officia laborum. </p><p>Lorem, ipsum dolor sit amet consectetur adipisicing elit. Eum necessitatibus, quis doloribus soluta quae officia. Ab incidunt cum voluptate pariatur inventore doloribus ut consequuntur similique minus, asperiores temporibus vel? At sunt doloremque nesciunt eveniet! Ipsam voluptate suscipit vel veritatis ut accusantium dignissimos doloremque ex porro quidem nemo, magnam quia voluptates odio obcaecati officia laborum. </p><p>Lorem, ipsum dolor sit amet consectetur adipisicing elit. Eum necessitatibus, quis doloribus soluta quae officia. Ab incidunt cum voluptate pariatur inventore doloribus ut consequuntur similique minus, asperiores temporibus vel? At sunt doloremque nesciunt eveniet! Ipsam voluptate suscipit vel veritatis ut accusantium dignissimos doloremque ex porro quidem nemo, magnam quia voluptates odio obcaecati officia laborum. </p><p>Lorem, ipsum dolor sit amet consectetur adipisicing elit. Eum necessitatibus, quis doloribus soluta quae officia. Ab incidunt cum voluptate pariatur inventore doloribus ut consequuntur similique minus, asperiores temporibus vel? At sunt doloremque nesciunt eveniet! Ipsam voluptate suscipit vel veritatis ut accusantium dignissimos doloremque ex porro quidem nemo, magnam quia voluptates odio obcaecati officia laborum. </p><p>Lorem, ipsum dolor sit amet consectetur adipisicing elit. Eum necessitatibus, quis doloribus soluta quae officia. Ab incidunt cum voluptate pariatur inventore doloribus ut consequuntur similique minus, asperiores temporibus vel? At sunt doloremque nesciunt eveniet! Ipsam voluptate suscipit vel veritatis ut accusantium dignissimos doloremque ex porro quidem nemo, magnam quia voluptates odio obcaecati officia laborum. </p><p>Lorem, ipsum dolor sit amet consectetur adipisicing elit. Eum necessitatibus, quis doloribus soluta quae officia. Ab incidunt cum voluptate pariatur inventore doloribus ut consequuntur similique minus, asperiores temporibus vel? At sunt doloremque nesciunt eveniet! Ipsam voluptate suscipit vel veritatis ut accusantium dignissimos doloremque ex porro quidem nemo, magnam quia voluptates odio obcaecati officia laborum. </p><p>Lorem, ipsum dolor sit amet consectetur adipisicing elit. Eum necessitatibus, quis doloribus soluta quae officia. Ab incidunt cum voluptate pariatur inventore doloribus ut consequuntur similique minus, asperiores temporibus vel? At sunt doloremque nesciunt eveniet! Ipsam voluptate suscipit vel veritatis ut accusantium dignissimos doloremque ex porro quidem nemo, magnam quia voluptates odio obcaecati officia laborum. </p><p>Lorem, ipsum dolor sit amet consectetur adipisicing elit. Eum necessitatibus, quis doloribus soluta quae officia. Ab incidunt cum voluptate pariatur inventore doloribus ut consequuntur similique minus, asperiores temporibus vel? At sunt doloremque nesciunt eveniet! Ipsam voluptate suscipit vel veritatis ut accusantium dignissimos doloremque ex porro quidem nemo, magnam quia voluptates odio obcaecati officia laborum. </p><p>Lorem, ipsum dolor sit amet consectetur adipisicing elit. Eum necessitatibus, quis doloribus soluta quae officia. Ab incidunt cum voluptate pariatur inventore doloribus ut consequuntur similique minus, asperiores temporibus vel? Amalie At sunt doloremque nesciunt eveniet! Ipsam voluptate suscipit vel veritatis ut accusantium dignissimos doloremque ex porro quidem nemo, magnam quia voluptates odio obcaecati officia laborum. </p>"
        },
        {
            "title": "The cheapest coffee on the market",
            "date": "12-07-2019",
            "image": "./assets/images/posts/post_thumbnail-4.png",
            "text": "<p>Lorem, ipsum dolor sit amet consectetur adipisicing elit. Eum necessitatibus, quis doloribus soluta quae officia. Ab incidunt cum voluptate pariatur inventore doloribus ut consequuntur similique minus, asperiores temporibus vel? At sunt doloremque nesciunt eveniet! Ipsam voluptate suscipit vel veritatis ut accusantium dignissimos doloremque ex porro quidem nemo, magnam quia voluptates odio obcaecati officia laborum. </p><p>Lorem, ipsum dolor sit amet consectetur adipisicing elit. Eum necessitatibus, quis doloribus soluta quae officia. Ab incidunt cum voluptate pariatur inventore doloribus ut consequuntur similique minus, asperiores temporibus vel? At sunt doloremque nesciunt eveniet! Ipsam voluptate suscipit vel veritatis ut accusantium dignissimos doloremque ex porro quidem nemo, magnam quia voluptates odio obcaecati officia laborum. </p><p>Lorem, ipsum dolor sit amet consectetur adipisicing elit. Eum necessitatibus, quis doloribus soluta quae officia. Ab incidunt cum voluptate pariatur inventore doloribus ut consequuntur similique minus, asperiores temporibus vel? At sunt doloremque nesciunt eveniet! Ipsam voluptate suscipit vel veritatis ut accusantium dignissimos doloremque ex porro quidem nemo, magnam quia voluptates odio obcaecati officia laborum. </p><p>Lorem, ipsum dolor sit amet consectetur adipisicing elit. Eum necessitatibus, quis doloribus soluta quae officia. Ab incidunt cum voluptate pariatur inventore doloribus ut consequuntur similique minus, asperiores temporibus vel? At sunt doloremque nesciunt eveniet! Ipsam voluptate suscipit vel veritatis ut accusantium dignissimos doloremque ex porro quidem nemo, magnam quia voluptates odio obcaecati officia laborum. </p><p>Lorem, ipsum dolor sit amet consectetur adipisicing elit. Eum necessitatibus, quis doloribus soluta quae officia. Ab incidunt cum voluptate pariatur inventore doloribus ut consequuntur similique minus, asperiores temporibus vel? At sunt doloremque nesciunt eveniet! Ipsam voluptate suscipit vel veritatis ut accusantium dignissimos doloremque ex porro quidem nemo, magnam quia voluptates odio obcaecati officia laborum. </p><p>Lorem, ipsum dolor sit amet consectetur adipisicing elit. Eum necessitatibus, quis doloribus soluta quae officia. Ab incidunt cum voluptate pariatur inventore doloribus ut consequuntur similique minus, asperiores temporibus vel? At sunt doloremque nesciunt eveniet! Ipsam voluptate suscipit vel veritatis ut accusantium dignissimos doloremque ex porro quidem nemo, magnam quia voluptates odio obcaecati officia laborum. </p><p>Lorem, ipsum dolor sit amet consectetur adipisicing elit. Eum necessitatibus, quis doloribus soluta quae officia. Ab incidunt cum voluptate pariatur inventore doloribus ut consequuntur similique minus, asperiores temporibus vel? At sunt doloremque nesciunt eveniet! Ipsam voluptate suscipit vel veritatis ut accusantium dignissimos doloremque ex porro quidem nemo, magnam quia voluptates odio obcaecati officia laborum. </p><p>Lorem, ipsum dolor sit amet consectetur adipisicing elit. Eum necessitatibus, quis doloribus soluta quae officia. Ab incidunt cum voluptate pariatur inventore doloribus ut consequuntur similique minus, asperiores temporibus vel? At sunt doloremque nesciunt eveniet! Ipsam voluptate suscipit vel veritatis ut accusantium dignissimos doloremque ex porro quidem nemo, magnam quia voluptates odio obcaecati officia laborum. </p><p>Lorem, ipsum dolor sit amet consectetur adipisicing elit. Eum necessitatibus, quis doloribus soluta quae officia. Ab incidunt cum voluptate pariatur inventore doloribus ut consequuntur similique minus, asperiores temporibus vel? At sunt doloremque nesciunt eveniet! Ipsam voluptate suscipit vel veritatis ut accusantium dignissimos doloremque ex porro quidem nemo, magnam quia voluptates odio obcaecati officia laborum. </p><p>Lorem, ipsum dolor sit amet consectetur adipisicing elit. Eum necessitatibus, quis doloribus soluta quae officia. Ab incidunt cum voluptate pariatur inventore doloribus ut consequuntur similique minus, asperiores temporibus vel? At sunt doloremque nesciunt eveniet! Ipsam voluptate suscipit vel veritatis ut accusantium dignissimos doloremque ex porro quidem nemo, magnam quia voluptates odio obcaecati officia laborum. </p>"
        },
        {
            "title": "Wonder Copenhagen 2019",
            "date": "12-07-2019",
            "image": "./assets/images/posts/post_thumbnail-2.png",
            "text": "<p>Lorem, ipsum dolor sit amet consectetur adipisicing elit. Eum necessitatibus, quis doloribus soluta quae officia. Ab incidunt cum voluptate pariatur inventore doloribus ut consequuntur similique minus, asperiores temporibus vel? At sunt doloremque nesciunt eveniet! Ipsam voluptate suscipit vel veritatis ut accusantium dignissimos doloremque ex porro quidem nemo, magnam quia voluptates odio obcaecati officia laborum. </p><p>Lorem, ipsum dolor sit amet consectetur adipisicing elit. Eum necessitatibus, quis doloribus soluta quae officia. Ab incidunt cum voluptate pariatur inventore doloribus ut consequuntur similique minus, asperiores temporibus vel? At sunt doloremque nesciunt eveniet! Ipsam voluptate suscipit vel veritatis ut accusantium dignissimos doloremque ex porro quidem nemo, magnam quia voluptates odio obcaecati officia laborum. </p><p>Lorem, ipsum dolor sit amet consectetur adipisicing elit. Eum necessitatibus, quis doloribus soluta quae officia. Ab incidunt cum voluptate pariatur inventore doloribus ut consequuntur similique minus, asperiores temporibus vel? At sunt doloremque nesciunt eveniet! Ipsam voluptate suscipit vel veritatis ut accusantium dignissimos doloremque ex porro quidem nemo, magnam quia voluptates odio obcaecati officia laborum. </p><p>Lorem, ipsum dolor sit amet consectetur adipisicing elit. Eum necessitatibus, quis doloribus soluta quae officia. Ab incidunt cum voluptate pariatur inventore doloribus ut consequuntur similique minus, asperiores temporibus vel? At sunt doloremque nesciunt eveniet! Ipsam voluptate suscipit vel veritatis ut accusantium dignissimos doloremque ex porro quidem nemo, magnam quia voluptates odio obcaecati officia laborum. </p><p>Lorem, ipsum dolor sit amet consectetur adipisicing elit. Eum necessitatibus, quis doloribus soluta quae officia. Ab incidunt cum voluptate pariatur inventore doloribus ut consequuntur similique minus, asperiores temporibus vel? At sunt doloremque nesciunt eveniet! Ipsam voluptate suscipit vel veritatis ut accusantium dignissimos doloremque ex porro quidem nemo, magnam quia voluptates odio obcaecati officia laborum. </p><p>Lorem, ipsum dolor sit amet consectetur adipisicing elit. Eum necessitatibus, quis doloribus soluta quae officia. Ab incidunt cum voluptate pariatur inventore doloribus ut consequuntur similique minus, asperiores temporibus vel? At sunt doloremque nesciunt eveniet! Ipsam voluptate suscipit vel veritatis ut accusantium dignissimos doloremque ex porro quidem nemo, magnam quia voluptates odio obcaecati officia laborum. </p><p>Lorem, ipsum dolor sit amet consectetur adipisicing elit. Eum necessitatibus, quis doloribus soluta quae officia. Ab incidunt cum voluptate pariatur inventore doloribus ut consequuntur similique minus, asperiores temporibus vel? At sunt doloremque nesciunt eveniet! Ipsam voluptate suscipit vel veritatis ut accusantium dignissimos doloremque ex porro quidem nemo, magnam quia voluptates odio obcaecati officia laborum. </p><p>Lorem, ipsum dolor sit amet consectetur adipisicing elit. Eum necessitatibus, quis doloribus soluta quae officia. Ab incidunt cum voluptate pariatur inventore doloribus ut consequuntur similique minus, asperiores temporibus vel? At sunt doloremque nesciunt eveniet! Ipsam voluptate suscipit vel veritatis ut accusantium dignissimos doloremque ex porro quidem nemo, magnam quia voluptates odio obcaecati officia laborum. </p><p>Lorem, ipsum dolor sit amet consectetur adipisicing elit. Eum necessitatibus, quis doloribus soluta quae officia. Ab incidunt cum voluptate pariatur inventore doloribus ut consequuntur similique minus, asperiores temporibus vel? At sunt doloremque nesciunt eveniet! Ipsam voluptate suscipit vel veritatis ut accusantium dignissimos doloremque ex porro quidem nemo, magnam quia voluptates odio obcaecati officia laborum. </p><p>Lorem, ipsum dolor sit amet consectetur adipisicing elit. Eum necessitatibus, quis doloribus soluta quae officia. Ab incidunt cum voluptate pariatur inventore doloribus ut consequuntur similique minus, asperiores temporibus vel? At sunt doloremque nesciunt eveniet! Ipsam voluptate suscipit vel veritatis ut accusantium dignissimos doloremque ex porro quidem nemo, magnam quia voluptates odio obcaecati officia laborum. </p>"
        }
    ]
}